<?xml version="1.0" encoding="utf-8"?>
<!-- Generator: Adobe Illustrator 24.2.3, SVG Export Plug-In . SVG Version: 6.00 Build 0)  -->
<svg version="1.1" id="Layer_1" xmlns="http://www.w3.org/2000/svg" xmlns:xlink="http://www.w3.org/1999/xlink" x="0px" y="0px"
	 viewBox="0 0 594 471" style="enable-background:new 0 0 594 471;" xml:space="preserve">
<style type="text/css">
	.st0{fill-rule:evenodd;clip-rule:evenodd;}
	.st1{fill-rule:evenodd;clip-rule:evenodd;fill:#FFFFFF;stroke:#DBDBDB;stroke-miterlimit:10;}
	.st2{fill:#FFA06C;}
	.st3{fill:#E8E8E8;}
	.st4{fill-rule:evenodd;clip-rule:evenodd;fill:#4A4A4A;}
	.st5{opacity:0.6121;fill-rule:evenodd;clip-rule:evenodd;fill:#838B95;fill-opacity:0.2007;enable-background:new    ;}
	.st6{fill-rule:evenodd;clip-rule:evenodd;fill:#E8E9ED;}
	.st7{filter:url(#Adobe_OpacityMaskFilter);}
	.st8{fill-rule:evenodd;clip-rule:evenodd;fill:#FFFFFF;}
	.st9{mask:url(#mask-4_1_);}
	.st10{fill:#FFFFFF;}
	.st11{fill:#4A4A4A;}
	.st12{font-family:'ArialMT';}
	.st13{font-size:14px;}
	.st14{fill-rule:evenodd;clip-rule:evenodd;fill:#EDA1A8;}
	.st15{filter:url(#Adobe_OpacityMaskFilter_1_);}
	.st16{mask:url(#mask-8_1_);}
	.st17{fill:#FFC745;}
	.st18{filter:url(#Adobe_OpacityMaskFilter_2_);}
	.st19{mask:url(#mask-12_1_);}
	.st20{fill-rule:evenodd;clip-rule:evenodd;stroke:#DBDBDB;stroke-miterlimit:10;}
	.st21{filter:url(#Adobe_OpacityMaskFilter_3_);}
	.st22{mask:url(#mask-16_1_);}
	.st23{fill:none;stroke:#E3E4E6;stroke-width:2;}
	.st24{fill-rule:evenodd;clip-rule:evenodd;fill:#C4C8CD;}
	.st25{opacity:0.2;fill:#A9B3C2;enable-background:new    ;}
	.st26{fill:url(#Oval-4-Copy_1_);}
	.st27{fill-rule:evenodd;clip-rule:evenodd;fill:#3C4857;}
	.st28{enable-background:new    ;}
	.st29{fill:#5677FC;}
</style>
<desc>Created with Sketch.</desc>
<g id="Page-1">
	<g id="Group-7-Copy-3" transform="translate(20.000000, 13.000000)">
		<g id="Group-12-Copy" transform="translate(37.000000, 0.000000)">
			<g id="Rectangle-2">
				<g>
					<path id="path-1" class="st0" d="M5.3,0.5h370c3.3,0,6,2.7,6,6v73c0,3.3-2.7,6-6,6H5.3c-3.3,0-6-2.7-6-6v-73
						C-0.7,3.2,2,0.5,5.3,0.5z"/>
				</g>
				<g>
					<path id="path-1_1_" class="st1" d="M5.3,0.5h370c3.3,0,6,2.7,6,6v73c0,3.3-2.7,6-6,6H5.3c-3.3,0-6-2.7-6-6v-73
						C-0.7,3.2,2,0.5,5.3,0.5z"/>
				</g>
			</g>
			<g id="Group-2-Copy" transform="translate(275.000000, 15.000000)">
				<path id="Shape" class="st2" d="M3.5,4.8c0.2,0,0.4-0.2,0.5-0.4l1.9-3.9l1.9,3.9C7.8,4.7,8,4.8,8.2,4.8l4.1,0.6l-3,3.1
					C9.2,8.7,9.1,8.9,9.1,9.2l0.7,4.3l-3.7-2c-0.2-0.1-0.4-0.1-0.6,0l-3.7,2l0.7-4.3c0-0.2,0-0.5-0.2-0.6l-3-3.1L3.5,4.8z"/>
				<path id="Shape-Copy" class="st2" d="M20.5,4.8c0.2,0,0.4-0.2,0.5-0.4l1.9-3.9l1.9,3.9c0.1,0.2,0.3,0.4,0.5,0.4l4.1,0.6l-3,3.1
					c-0.2,0.2-0.2,0.4-0.2,0.6l0.7,4.3l-3.7-2c-0.2-0.1-0.4-0.1-0.6,0l-3.7,2l0.7-4.3c0-0.2,0-0.5-0.2-0.6l-3-3.1L20.5,4.8z"/>
				<path id="Shape-Copy-3" class="st2" d="M54.5,4.8c0.2,0,0.4-0.2,0.5-0.4l1.9-3.9l1.9,3.9c0.1,0.2,0.3,0.4,0.5,0.4l4.1,0.6
					l-3,3.1c-0.2,0.2-0.2,0.4-0.2,0.6l0.7,4.3l-3.7-2c-0.2-0.1-0.4-0.1-0.6,0l-3.7,2l0.7-4.3c0-0.2,0-0.5-0.2-0.6l-3-3.1L54.5,4.8z"
					/>
				<path id="Shape-Copy-2" class="st2" d="M37.5,4.8c0.2,0,0.4-0.2,0.5-0.4l1.9-3.9l1.9,3.9c0.1,0.2,0.3,0.4,0.5,0.4l4.1,0.6
					l-3,3.1c-0.2,0.2-0.2,0.4-0.2,0.6l0.7,4.3l-3.7-2c-0.2-0.1-0.4-0.1-0.6,0l-3.7,2l0.7-4.3c0-0.2,0-0.5-0.2-0.6l-3-3.1L37.5,4.8z"
					/>
				<path id="Shape-Copy-4" class="st3" d="M72.5,4.8c0.2,0,0.4-0.2,0.5-0.4l1.9-3.9l1.9,3.9c0.1,0.2,0.3,0.4,0.5,0.4l4.1,0.6
					l-3,3.1c-0.2,0.2-0.2,0.4-0.2,0.6l0.7,4.3l-3.7-2c-0.2-0.1-0.4-0.1-0.6,0l-3.7,2l0.7-4.3c0-0.2,0-0.5-0.2-0.6l-3-3.1L72.5,4.8z"
					/>
			</g>
			<path id="Carina" class="st4" d="M102.1,21.7c-0.1-0.3-0.2-0.6-0.3-0.8c-0.1-0.2-0.3-0.5-0.5-0.6s-0.4-0.3-0.7-0.4
				c-0.3-0.1-0.6-0.1-1-0.1c-0.5,0-1,0.1-1.4,0.3c-0.4,0.2-0.7,0.5-0.9,0.9c-0.2,0.4-0.4,0.8-0.5,1.2c-0.1,0.5-0.2,0.9-0.2,1.4
				c0,0.5,0.1,0.9,0.2,1.4c0.1,0.5,0.3,0.9,0.5,1.2c0.2,0.4,0.6,0.6,0.9,0.9c0.4,0.2,0.8,0.3,1.4,0.3c0.4,0,0.7-0.1,1-0.2
				s0.6-0.3,0.8-0.6c0.2-0.2,0.4-0.5,0.5-0.8c0.1-0.3,0.2-0.7,0.2-1h1.7c0,0.6-0.2,1.1-0.4,1.6c-0.2,0.5-0.5,0.9-0.9,1.3
				s-0.8,0.6-1.3,0.8s-1.1,0.3-1.7,0.3c-0.7,0-1.4-0.1-2-0.4c-0.6-0.3-1.1-0.7-1.5-1.1s-0.7-1-0.9-1.7s-0.3-1.3-0.3-2
				c0-0.7,0.1-1.4,0.3-2s0.5-1.2,0.9-1.7c0.4-0.5,0.9-0.9,1.5-1.1c0.6-0.3,1.3-0.4,2-0.4c0.6,0,1.1,0.1,1.6,0.2s0.9,0.4,1.3,0.7
				c0.4,0.3,0.7,0.7,0.9,1.1c0.2,0.4,0.4,0.9,0.4,1.4H102.1z M111.3,26.9c0,0.2,0,0.3,0.1,0.4c0.1,0.1,0.2,0.1,0.3,0.1h0.2
				c0.1,0,0.1,0,0.2,0v1.1c-0.1,0-0.1,0-0.2,0.1c-0.1,0-0.2,0-0.3,0.1c-0.1,0-0.2,0-0.3,0c-0.1,0-0.2,0-0.2,0
				c-0.3,0-0.6-0.1-0.8-0.2s-0.4-0.4-0.4-0.7c-0.3,0.3-0.7,0.5-1.2,0.7c-0.5,0.1-0.9,0.2-1.3,0.2c-0.3,0-0.6,0-0.9-0.1
				s-0.6-0.2-0.8-0.4c-0.2-0.2-0.4-0.4-0.5-0.7c-0.1-0.3-0.2-0.6-0.2-0.9c0-0.4,0.1-0.8,0.2-1.1c0.2-0.3,0.4-0.5,0.6-0.7
				c0.3-0.2,0.6-0.3,0.9-0.3c0.3-0.1,0.7-0.1,1-0.2c0.3-0.1,0.6-0.1,0.8-0.1c0.3,0,0.5-0.1,0.7-0.1s0.4-0.1,0.5-0.3
				c0.1-0.1,0.2-0.3,0.2-0.5c0-0.2,0-0.4-0.1-0.5s-0.2-0.2-0.4-0.3c-0.1-0.1-0.3-0.1-0.5-0.1c-0.2,0-0.3,0-0.5,0
				c-0.4,0-0.8,0.1-1.1,0.3c-0.3,0.2-0.5,0.5-0.5,0.9h-1.6c0-0.5,0.1-0.9,0.3-1.2c0.2-0.3,0.4-0.6,0.7-0.7c0.3-0.2,0.6-0.3,1-0.4
				c0.4-0.1,0.8-0.1,1.2-0.1c0.4,0,0.7,0,1.1,0.1c0.3,0.1,0.7,0.2,0.9,0.4c0.3,0.2,0.5,0.4,0.7,0.7c0.2,0.3,0.3,0.6,0.3,1V26.9z
				 M109.7,24.9c-0.2,0.2-0.5,0.3-0.9,0.3c-0.4,0-0.7,0.1-1.1,0.1c-0.2,0-0.3,0.1-0.5,0.1c-0.2,0.1-0.3,0.1-0.4,0.2
				c-0.1,0.1-0.2,0.2-0.3,0.4c-0.1,0.1-0.1,0.3-0.1,0.5c0,0.2,0.1,0.3,0.2,0.4c0.1,0.1,0.2,0.2,0.4,0.3c0.1,0.1,0.3,0.1,0.5,0.1
				c0.2,0,0.3,0,0.5,0c0.2,0,0.4,0,0.6-0.1c0.2,0,0.4-0.1,0.6-0.2c0.2-0.1,0.3-0.3,0.5-0.4c0.1-0.2,0.2-0.4,0.2-0.6V24.9z
				 M113.1,21.3h1.5v1.4h0c0-0.2,0.1-0.4,0.3-0.6c0.1-0.2,0.3-0.4,0.5-0.5c0.2-0.2,0.4-0.3,0.6-0.4c0.2-0.1,0.5-0.1,0.7-0.1
				c0.2,0,0.3,0,0.4,0c0.1,0,0.1,0,0.2,0v1.5c-0.1,0-0.2,0-0.3,0c-0.1,0-0.2,0-0.3,0c-0.3,0-0.5,0.1-0.8,0.2s-0.4,0.3-0.6,0.5
				c-0.2,0.2-0.3,0.5-0.4,0.8c-0.1,0.3-0.2,0.7-0.2,1.1v3.4h-1.6V21.3z M118,18.5h1.6V20H118V18.5z M118,21.3h1.6v7.2H118V21.3z
				 M121.4,21.3h1.5v1.1l0,0c0.2-0.4,0.6-0.7,1-0.9c0.4-0.2,0.8-0.3,1.3-0.3c0.8,0,1.4,0.2,1.9,0.6c0.5,0.4,0.7,1,0.7,1.8v5h-1.6V24
				c0-0.6-0.1-1-0.4-1.2s-0.6-0.4-1.1-0.4c-0.3,0-0.5,0-0.7,0.1c-0.2,0.1-0.4,0.2-0.5,0.4c-0.1,0.2-0.3,0.4-0.4,0.6
				c-0.1,0.2-0.1,0.5-0.1,0.7v4.3h-1.6V21.3z M135.5,26.9c0,0.2,0,0.3,0.1,0.4c0.1,0.1,0.2,0.1,0.3,0.1h0.2c0.1,0,0.1,0,0.2,0v1.1
				c-0.1,0-0.1,0-0.2,0.1c-0.1,0-0.2,0-0.3,0.1c-0.1,0-0.2,0-0.3,0c-0.1,0-0.2,0-0.2,0c-0.3,0-0.6-0.1-0.8-0.2
				c-0.2-0.1-0.4-0.4-0.4-0.7c-0.3,0.3-0.7,0.5-1.2,0.7s-0.9,0.2-1.3,0.2c-0.3,0-0.6,0-0.9-0.1c-0.3-0.1-0.6-0.2-0.8-0.4
				c-0.2-0.2-0.4-0.4-0.5-0.7c-0.1-0.3-0.2-0.6-0.2-0.9c0-0.4,0.1-0.8,0.2-1.1c0.2-0.3,0.4-0.5,0.6-0.7c0.3-0.2,0.6-0.3,0.9-0.3
				c0.3-0.1,0.7-0.1,1-0.2c0.3-0.1,0.6-0.1,0.8-0.1c0.3,0,0.5-0.1,0.7-0.1s0.4-0.1,0.5-0.3c0.1-0.1,0.2-0.3,0.2-0.5
				c0-0.2,0-0.4-0.1-0.5c-0.1-0.1-0.2-0.2-0.4-0.3c-0.1-0.1-0.3-0.1-0.5-0.1s-0.3,0-0.5,0c-0.4,0-0.8,0.1-1.1,0.3
				c-0.3,0.2-0.5,0.5-0.5,0.9h-1.6c0-0.5,0.1-0.9,0.3-1.2c0.2-0.3,0.4-0.6,0.7-0.7c0.3-0.2,0.6-0.3,1-0.4s0.8-0.1,1.2-0.1
				c0.4,0,0.7,0,1.1,0.1s0.7,0.2,0.9,0.4c0.3,0.2,0.5,0.4,0.7,0.7c0.2,0.3,0.3,0.6,0.3,1V26.9z M133.9,24.9
				c-0.2,0.2-0.5,0.3-0.9,0.3c-0.4,0-0.7,0.1-1.1,0.1c-0.2,0-0.3,0.1-0.5,0.1s-0.3,0.1-0.4,0.2c-0.1,0.1-0.2,0.2-0.3,0.4
				c-0.1,0.1-0.1,0.3-0.1,0.5c0,0.2,0.1,0.3,0.2,0.4c0.1,0.1,0.2,0.2,0.4,0.3c0.1,0.1,0.3,0.1,0.5,0.1c0.2,0,0.3,0,0.5,0
				c0.2,0,0.4,0,0.6-0.1c0.2,0,0.4-0.1,0.6-0.2c0.2-0.1,0.3-0.3,0.5-0.4c0.1-0.2,0.2-0.4,0.2-0.6V24.9z"/>
			<path id="Rectangle-7-Copy-6" class="st5" d="M95.3,41.5h260c0.6,0,1,0.4,1,1v6c0,0.6-0.4,1-1,1h-260c-0.6,0-1-0.4-1-1v-6
				C94.3,41.9,94.8,41.5,95.3,41.5z"/>
			<path id="Rectangle-7-Copy-14" class="st5" d="M95.3,59.5h218c0.6,0,1,0.4,1,1v6c0,0.6-0.4,1-1,1h-218c-0.6,0-1-0.4-1-1v-6
				C94.3,59.9,94.8,59.5,95.3,59.5z"/>
			<g id="user_male" transform="translate(25.000000, 14.000000)">
				<g id="Mask">
					<circle id="path-3_1_" class="st6" cx="23.8" cy="25" r="24.5"/>
				</g>
				<defs>
					<filter id="Adobe_OpacityMaskFilter" filterUnits="userSpaceOnUse" x="2.3" y="10.5" width="43" height="43">
						<feColorMatrix  type="matrix" values="1 0 0 0 0  0 1 0 0 0  0 0 1 0 0  0 0 0 1 0"/>
					</filter>
				</defs>
				<mask maskUnits="userSpaceOnUse" x="2.3" y="10.5" width="43" height="43" id="mask-4_1_">
					<g class="st7">
						<circle id="path-3_2_" class="st8" cx="23.8" cy="25" r="24.5"/>
					</g>
				</mask>
				<g id="Shape_1_" class="st9">
					<g transform="translate(3.000000, 10.000000)">
						<path class="st10" d="M26.2,29.2v-3.6c0.8-0.4,3.1-3.1,3.4-5.3c0.6,0,1.6-0.6,1.9-2.9c0.2-1.2-0.5-1.9-0.8-2.1
							c0,0,0.9-1.8,0.9-4c0-4.4-1.7-8.1-5.4-8.1c0,0-1.3-2.7-5.4-2.7c-7.6,0-10.8,4.9-10.8,10.8c0,2,0.9,4,0.9,4
							c-0.4,0.2-1,0.9-0.8,2.1c0.3,2.3,1.3,2.9,1.9,2.9c0.2,2.1,2.5,4.9,3.4,5.3v3.6C13.7,34.5-0.7,31-0.7,43.5h43
							C42.3,31,28,34.5,26.2,29.2z"/>
					</g>
				</g>
			</g>
		</g>
		<g id="Group-12-Copy-5" transform="translate(172.000000, 115.333333)">
			<g id="Rectangle-2_1_">
				<g>
					<path id="path-5" class="st0" d="M5.3,0.5h370c3.3,0,6,2.7,6,6v73c0,3.3-2.7,6-6,6H5.3c-3.3,0-6-2.7-6-6v-73
						C-0.7,3.2,2,0.5,5.3,0.5z"/>
				</g>
				<g>
					<path id="path-5_1_" class="st1" d="M5.3,0.5h370c3.3,0,6,2.7,6,6v73c0,3.3-2.7,6-6,6H5.3c-3.3,0-6-2.7-6-6v-73
						C-0.7,3.2,2,0.5,5.3,0.5z"/>
				</g>
			</g>
			<g id="Group-2-Copy_1_" transform="translate(275.000000, 15.000000)">
				<path id="Shape_2_" class="st2" d="M3.5,4.8c0.2,0,0.4-0.2,0.5-0.4l1.9-3.9l1.9,3.9C7.8,4.7,8,4.8,8.2,4.8l4.1,0.6l-3,3.1
					C9.2,8.7,9.1,8.9,9.1,9.2l0.7,4.3l-3.7-2c-0.2-0.1-0.4-0.1-0.6,0l-3.7,2l0.7-4.3c0-0.2,0-0.5-0.2-0.6l-3-3.1L3.5,4.8z"/>
				<path id="Shape-Copy_1_" class="st2" d="M20.5,4.8c0.2,0,0.4-0.2,0.5-0.4l1.9-3.9l1.9,3.9c0.1,0.2,0.3,0.4,0.5,0.4l4.1,0.6
					l-3,3.1c-0.2,0.2-0.2,0.4-0.2,0.6l0.7,4.3l-3.7-2c-0.2-0.1-0.4-0.1-0.6,0l-3.7,2l0.7-4.3c0-0.2,0-0.5-0.2-0.6l-3-3.1L20.5,4.8z"
					/>
				<path id="Shape-Copy-3_1_" class="st2" d="M54.5,4.8c0.2,0,0.4-0.2,0.5-0.4l1.9-3.9l1.9,3.9c0.1,0.2,0.3,0.4,0.5,0.4l4.1,0.6
					l-3,3.1c-0.2,0.2-0.2,0.4-0.2,0.6l0.7,4.3l-3.7-2c-0.2-0.1-0.4-0.1-0.6,0l-3.7,2l0.7-4.3c0-0.2,0-0.5-0.2-0.6l-3-3.1L54.5,4.8z"
					/>
				<path id="Shape-Copy-2_1_" class="st2" d="M37.5,4.8c0.2,0,0.4-0.2,0.5-0.4l1.9-3.9l1.9,3.9c0.1,0.2,0.3,0.4,0.5,0.4l4.1,0.6
					l-3,3.1c-0.2,0.2-0.2,0.4-0.2,0.6l0.7,4.3l-3.7-2c-0.2-0.1-0.4-0.1-0.6,0l-3.7,2l0.7-4.3c0-0.2,0-0.5-0.2-0.6l-3-3.1L37.5,4.8z"
					/>
				<path id="Shape-Copy-4_1_" class="st2" d="M72.5,4.8c0.2,0,0.4-0.2,0.5-0.4l1.9-3.9l1.9,3.9c0.1,0.2,0.3,0.4,0.5,0.4l4.1,0.6
					l-3,3.1c-0.2,0.2-0.2,0.4-0.2,0.6l0.7,4.3l-3.7-2c-0.2-0.1-0.4-0.1-0.6,0l-3.7,2l0.7-4.3c0-0.2,0-0.5-0.2-0.6l-3-3.1L72.5,4.8z"
					/>
			</g>
			<text transform="matrix(1 0 0 1 94.326 28.5)" class="st11 st12 st13">Carina</text>
			<path id="Rectangle-7-Copy-6_1_" class="st5" d="M95.3,41.5h260c0.6,0,1,0.4,1,1v6c0,0.6-0.4,1-1,1h-260c-0.6,0-1-0.4-1-1v-6
				C94.3,41.9,94.8,41.5,95.3,41.5z"/>
			<path id="Rectangle-7-Copy-14_1_" class="st5" d="M95.3,59.5h244c0.6,0,1,0.4,1,1v6c0,0.6-0.4,1-1,1h-244c-0.6,0-1-0.4-1-1v-6
				C94.3,59.9,94.8,59.5,95.3,59.5z"/>
			<g id="user_male_1_" transform="translate(25.000000, 14.000000)">
				<g id="Mask_1_">
					<circle id="path-7_1_" class="st14" cx="23.8" cy="25" r="24.5"/>
				</g>
				<defs>
					<filter id="Adobe_OpacityMaskFilter_1_" filterUnits="userSpaceOnUse" x="2.3" y="10.5" width="43" height="43">
						<feColorMatrix  type="matrix" values="1 0 0 0 0  0 1 0 0 0  0 0 1 0 0  0 0 0 1 0"/>
					</filter>
				</defs>
				<mask maskUnits="userSpaceOnUse" x="2.3" y="10.5" width="43" height="43" id="mask-8_1_">
					<g class="st15">
						<circle id="path-7_2_" class="st8" cx="23.8" cy="25" r="24.5"/>
					</g>
				</mask>
				<g id="Shape_3_" class="st16">
					<g transform="translate(3.000000, 10.000000)">
						<path class="st10" d="M26.2,29.2v-3.6c0.8-0.4,3.1-3.1,3.4-5.3c0.6,0,1.6-0.6,1.9-2.9c0.2-1.2-0.5-1.9-0.8-2.1
							c0,0,0.9-1.8,0.9-4c0-4.4-1.7-8.1-5.4-8.1c0,0-1.3-2.7-5.4-2.7c-7.6,0-10.8,4.9-10.8,10.8c0,2,0.9,4,0.9,4
							c-0.4,0.2-1,0.9-0.8,2.1c0.3,2.3,1.3,2.9,1.9,2.9c0.2,2.1,2.5,4.9,3.4,5.3v3.6C13.7,34.5-0.7,31-0.7,43.5h43
							C42.3,31,28,34.5,26.2,29.2z"/>
					</g>
				</g>
			</g>
		</g>
		<g id="Group-12-Copy-6" transform="translate(0.000000, 230.666667)">
			<g id="Rectangle-2_2_">
				<g>
					<path id="path-9" class="st0" d="M5.3,0.5h370c3.3,0,6,2.7,6,6v73c0,3.3-2.7,6-6,6H5.3c-3.3,0-6-2.7-6-6v-73
						C-0.7,3.2,2,0.5,5.3,0.5z"/>
				</g>
				<g>
					<path id="path-9_1_" class="st1" d="M5.3,0.5h370c3.3,0,6,2.7,6,6v73c0,3.3-2.7,6-6,6H5.3c-3.3,0-6-2.7-6-6v-73
						C-0.7,3.2,2,0.5,5.3,0.5z"/>
				</g>
			</g>
			<g id="Group-2-Copy_2_" transform="translate(275.000000, 15.000000)">
				<path id="Shape_4_" class="st17" d="M3.5,4.8c0.2,0,0.4-0.2,0.5-0.4l1.9-3.9l1.9,3.9C7.8,4.7,8,4.8,8.2,4.8l4.1,0.6l-3,3.1
					C9.2,8.7,9.1,8.9,9.1,9.2l0.7,4.3l-3.7-2c-0.2-0.1-0.4-0.1-0.6,0l-3.7,2l0.7-4.3c0-0.2,0-0.5-0.2-0.6l-3-3.1L3.5,4.8z"/>
				<path id="Shape-Copy_2_" class="st17" d="M20.5,4.8c0.2,0,0.4-0.2,0.5-0.4l1.9-3.9l1.9,3.9c0.1,0.2,0.3,0.4,0.5,0.4l4.1,0.6
					l-3,3.1c-0.2,0.2-0.2,0.4-0.2,0.6l0.7,4.3l-3.7-2c-0.2-0.1-0.4-0.1-0.6,0l-3.7,2l0.7-4.3c0-0.2,0-0.5-0.2-0.6l-3-3.1L20.5,4.8z"
					/>
				<path id="Shape-Copy-3_2_" class="st17" d="M54.5,4.8c0.2,0,0.4-0.2,0.5-0.4l1.9-3.9l1.9,3.9c0.1,0.2,0.3,0.4,0.5,0.4l4.1,0.6
					l-3,3.1c-0.2,0.2-0.2,0.4-0.2,0.6l0.7,4.3l-3.7-2c-0.2-0.1-0.4-0.1-0.6,0l-3.7,2l0.7-4.3c0-0.2,0-0.5-0.2-0.6l-3-3.1L54.5,4.8z"
					/>
				<path id="Shape-Copy-2_2_" class="st17" d="M37.5,4.8c0.2,0,0.4-0.2,0.5-0.4l1.9-3.9l1.9,3.9c0.1,0.2,0.3,0.4,0.5,0.4l4.1,0.6
					l-3,3.1c-0.2,0.2-0.2,0.4-0.2,0.6l0.7,4.3l-3.7-2c-0.2-0.1-0.4-0.1-0.6,0l-3.7,2l0.7-4.3c0-0.2,0-0.5-0.2-0.6l-3-3.1L37.5,4.8z"
					/>
				<path id="Shape-Copy-4_2_" class="st3" d="M72.5,4.8c0.2,0,0.4-0.2,0.5-0.4l1.9-3.9l1.9,3.9c0.1,0.2,0.3,0.4,0.5,0.4l4.1,0.6
					l-3,3.1c-0.2,0.2-0.2,0.4-0.2,0.6l0.7,4.3l-3.7-2c-0.2-0.1-0.4-0.1-0.6,0l-3.7,2l0.7-4.3c0-0.2,0-0.5-0.2-0.6l-3-3.1L72.5,4.8z"
					/>
			</g>
			<path id="Jorge" class="st4" d="M100.8,25.3c0,0.4,0,0.9-0.1,1.3c-0.1,0.4-0.2,0.8-0.5,1.1s-0.6,0.6-1,0.8
				c-0.4,0.2-1,0.3-1.7,0.3c-0.5,0-1-0.1-1.4-0.2s-0.7-0.4-0.9-0.7c-0.2-0.3-0.4-0.6-0.5-1s-0.2-0.8-0.2-1.3V25h1.8v0.5
				c0,0.6,0.1,1,0.3,1.3c0.2,0.3,0.6,0.5,1.1,0.5c0.3,0,0.5,0,0.7-0.1s0.3-0.2,0.4-0.4c0.1-0.2,0.2-0.4,0.2-0.6
				c0-0.2,0.1-0.5,0.1-0.8v-6.9h1.8V25.3z M106,28.7c-0.6,0-1.1-0.1-1.5-0.3c-0.5-0.2-0.8-0.5-1.1-0.8s-0.6-0.7-0.7-1.2
				c-0.2-0.5-0.2-1-0.2-1.5c0-0.6,0.1-1.1,0.2-1.5c0.2-0.5,0.4-0.9,0.7-1.2c0.3-0.3,0.7-0.6,1.1-0.8c0.5-0.2,1-0.3,1.5-0.3
				c0.6,0,1.1,0.1,1.5,0.3c0.5,0.2,0.8,0.5,1.1,0.8c0.3,0.3,0.6,0.7,0.7,1.2c0.2,0.5,0.2,1,0.2,1.5c0,0.6-0.1,1.1-0.2,1.5
				c-0.2,0.5-0.4,0.9-0.7,1.2s-0.7,0.6-1.1,0.8S106.6,28.7,106,28.7z M106,27.4c0.4,0,0.7-0.1,0.9-0.2s0.5-0.3,0.6-0.6
				c0.2-0.2,0.3-0.5,0.4-0.8c0.1-0.3,0.1-0.6,0.1-0.9c0-0.3,0-0.6-0.1-0.9c-0.1-0.3-0.2-0.6-0.4-0.8c-0.2-0.2-0.4-0.4-0.6-0.6
				s-0.6-0.2-0.9-0.2s-0.7,0.1-0.9,0.2s-0.5,0.3-0.6,0.6s-0.3,0.5-0.4,0.8c-0.1,0.3-0.1,0.6-0.1,0.9c0,0.3,0,0.6,0.1,0.9
				c0.1,0.3,0.2,0.6,0.4,0.8s0.4,0.4,0.6,0.6S105.6,27.4,106,27.4z M111,21.3h1.5v1.4h0c0-0.2,0.1-0.4,0.3-0.6
				c0.1-0.2,0.3-0.4,0.5-0.5c0.2-0.2,0.4-0.3,0.6-0.4c0.2-0.1,0.5-0.1,0.7-0.1c0.2,0,0.3,0,0.4,0s0.1,0,0.2,0v1.5
				c-0.1,0-0.2,0-0.3,0c-0.1,0-0.2,0-0.3,0c-0.3,0-0.5,0.1-0.8,0.2c-0.2,0.1-0.4,0.3-0.6,0.5c-0.2,0.2-0.3,0.5-0.4,0.8
				c-0.1,0.3-0.2,0.7-0.2,1.1v3.4H111V21.3z M122.6,28.1c0,1.1-0.3,1.9-0.9,2.4c-0.6,0.5-1.5,0.8-2.6,0.8c-0.4,0-0.7,0-1.1-0.1
				s-0.7-0.2-1-0.4c-0.3-0.2-0.6-0.4-0.8-0.7c-0.2-0.3-0.3-0.6-0.4-1.1h1.6c0,0.2,0.1,0.4,0.2,0.5c0.1,0.1,0.2,0.2,0.4,0.3
				c0.2,0.1,0.3,0.1,0.5,0.2c0.2,0,0.4,0,0.6,0c0.6,0,1.1-0.2,1.4-0.5s0.4-0.8,0.4-1.4v-1.1h0c-0.2,0.4-0.5,0.7-0.9,0.9
				s-0.8,0.3-1.3,0.3c-0.6,0-1.1-0.1-1.5-0.3c-0.4-0.2-0.7-0.5-1-0.8c-0.3-0.4-0.5-0.8-0.6-1.2c-0.1-0.5-0.2-0.9-0.2-1.5
				c0-0.5,0.1-0.9,0.2-1.4c0.1-0.4,0.4-0.8,0.6-1.2c0.3-0.3,0.6-0.6,1-0.8c0.4-0.2,0.9-0.3,1.4-0.3c0.5,0,0.9,0.1,1.3,0.3
				c0.4,0.2,0.7,0.5,0.9,0.9h0v-1h1.6V28.1z M119.1,27.2c0.4,0,0.7-0.1,0.9-0.2c0.2-0.1,0.4-0.3,0.6-0.6c0.2-0.2,0.3-0.5,0.3-0.8
				c0.1-0.3,0.1-0.6,0.1-0.9c0-0.3,0-0.6-0.1-0.9c-0.1-0.3-0.2-0.5-0.3-0.8c-0.2-0.2-0.4-0.4-0.6-0.5c-0.2-0.1-0.5-0.2-0.9-0.2
				c-0.4,0-0.7,0.1-0.9,0.2s-0.4,0.3-0.6,0.6c-0.1,0.2-0.3,0.5-0.3,0.8c-0.1,0.3-0.1,0.6-0.1,0.9c0,0.3,0,0.6,0.1,0.9
				s0.2,0.5,0.3,0.8s0.3,0.4,0.6,0.5C118.4,27.2,118.7,27.2,119.1,27.2z M129.2,24.2c0-0.3-0.1-0.5-0.2-0.7
				c-0.1-0.2-0.2-0.4-0.4-0.6c-0.2-0.2-0.3-0.3-0.6-0.4c-0.2-0.1-0.5-0.2-0.7-0.2c-0.3,0-0.5,0-0.8,0.1c-0.2,0.1-0.4,0.2-0.6,0.4
				c-0.2,0.2-0.3,0.4-0.4,0.6c-0.1,0.2-0.2,0.5-0.2,0.8H129.2z M125.5,25.3c0,0.3,0,0.6,0.1,0.8c0.1,0.3,0.2,0.5,0.4,0.7
				s0.4,0.4,0.6,0.5s0.5,0.2,0.9,0.2c0.5,0,0.8-0.1,1.1-0.3s0.5-0.5,0.6-0.9h1.5c-0.1,0.4-0.2,0.7-0.4,1c-0.2,0.3-0.5,0.6-0.7,0.8
				c-0.3,0.2-0.6,0.4-1,0.5s-0.7,0.2-1.1,0.2c-0.6,0-1.1-0.1-1.5-0.3c-0.4-0.2-0.8-0.4-1.1-0.8s-0.5-0.7-0.7-1.2
				c-0.2-0.5-0.2-1-0.2-1.5c0-0.5,0.1-1,0.2-1.5c0.2-0.5,0.4-0.9,0.7-1.2c0.3-0.4,0.7-0.6,1.1-0.8c0.4-0.2,0.9-0.3,1.5-0.3
				c0.6,0,1.1,0.1,1.5,0.4s0.8,0.6,1.1,0.9c0.3,0.4,0.5,0.8,0.7,1.4s0.2,1,0.1,1.6H125.5z"/>
			<path id="Rectangle-7-Copy-6_2_" class="st5" d="M95.3,41.5h260c0.6,0,1,0.4,1,1v6c0,0.6-0.4,1-1,1h-260c-0.6,0-1-0.4-1-1v-6
				C94.3,41.9,94.8,41.5,95.3,41.5z"/>
			<path id="Rectangle-7-Copy-14_2_" class="st5" d="M95.3,59.5h218c0.6,0,1,0.4,1,1v6c0,0.6-0.4,1-1,1h-218c-0.6,0-1-0.4-1-1v-6
				C94.3,59.9,94.8,59.5,95.3,59.5z"/>
			<g id="user_male_2_" transform="translate(25.000000, 14.000000)">
				<g id="Mask_2_">
					<circle id="path-11_1_" class="st6" cx="23.8" cy="25" r="24.5"/>
				</g>
				<defs>
					<filter id="Adobe_OpacityMaskFilter_2_" filterUnits="userSpaceOnUse" x="2.3" y="10.5" width="43" height="43">
						<feColorMatrix  type="matrix" values="1 0 0 0 0  0 1 0 0 0  0 0 1 0 0  0 0 0 1 0"/>
					</filter>
				</defs>
				<mask maskUnits="userSpaceOnUse" x="2.3" y="10.5" width="43" height="43" id="mask-12_1_">
					<g class="st18">
						<circle id="path-11_2_" class="st8" cx="23.8" cy="25" r="24.5"/>
					</g>
				</mask>
				<g id="Shape_5_" class="st19">
					<g transform="translate(3.000000, 10.000000)">
						<path class="st10" d="M26.2,29.2v-3.6c0.8-0.4,3.1-3.1,3.4-5.3c0.6,0,1.6-0.6,1.9-2.9c0.2-1.2-0.5-1.9-0.8-2.1
							c0,0,0.9-1.8,0.9-4c0-4.4-1.7-8.1-5.4-8.1c0,0-1.3-2.7-5.4-2.7c-7.6,0-10.8,4.9-10.8,10.8c0,2,0.9,4,0.9,4
							c-0.4,0.2-1,0.9-0.8,2.1c0.3,2.3,1.3,2.9,1.9,2.9c0.2,2.1,2.5,4.9,3.4,5.3v3.6C13.7,34.5-0.7,31-0.7,43.5h43
							C42.3,31,28,34.5,26.2,29.2z"/>
					</g>
				</g>
			</g>
		</g>
		<g id="Group-12-Copy-7" transform="translate(135.000000, 346.000000)">
			<g id="Rectangle-2_3_">
				<g>
					<path id="path-13" class="st20" d="M5.3,0.5h370c3.3,0,6,2.7,6,6v73c0,3.3-2.7,6-6,6H5.3c-3.3,0-6-2.7-6-6v-73
						C-0.7,3.2,2,0.5,5.3,0.5z"/>
				</g>
				<g>
					<path id="path-13_1_" class="st1" d="M5.3,0.5h370c3.3,0,6,2.7,6,6v73c0,3.3-2.7,6-6,6H5.3c-3.3,0-6-2.7-6-6v-73
						C-0.7,3.2,2,0.5,5.3,0.5z"/>
				</g>
			</g>
			<g id="Group-2-Copy_3_" transform="translate(275.000000, 15.000000)">
				<path id="Shape_6_" class="st2" d="M3.5,4.8c0.2,0,0.4-0.2,0.5-0.4l1.9-3.9l1.9,3.9C7.8,4.7,8,4.8,8.2,4.8l4.1,0.6l-3,3.1
					C9.2,8.7,9.1,8.9,9.1,9.2l0.7,4.3l-3.7-2c-0.2-0.1-0.4-0.1-0.6,0l-3.7,2l0.7-4.3c0-0.2,0-0.5-0.2-0.6l-3-3.1L3.5,4.8z"/>
				<path id="Shape-Copy_3_" class="st2" d="M20.5,4.8c0.2,0,0.4-0.2,0.5-0.4l1.9-3.9l1.9,3.9c0.1,0.2,0.3,0.4,0.5,0.4l4.1,0.6
					l-3,3.1c-0.2,0.2-0.2,0.4-0.2,0.6l0.7,4.3l-3.7-2c-0.2-0.1-0.4-0.1-0.6,0l-3.7,2l0.7-4.3c0-0.2,0-0.5-0.2-0.6l-3-3.1L20.5,4.8z"
					/>
				<path id="Shape-Copy-3_3_" class="st2" d="M54.5,4.8c0.2,0,0.4-0.2,0.5-0.4l1.9-3.9l1.9,3.9c0.1,0.2,0.3,0.4,0.5,0.4l4.1,0.6
					l-3,3.1c-0.2,0.2-0.2,0.4-0.2,0.6l0.7,4.3l-3.7-2c-0.2-0.1-0.4-0.1-0.6,0l-3.7,2l0.7-4.3c0-0.2,0-0.5-0.2-0.6l-3-3.1L54.5,4.8z"
					/>
				<path id="Shape-Copy-2_3_" class="st2" d="M37.5,4.8c0.2,0,0.4-0.2,0.5-0.4l1.9-3.9l1.9,3.9c0.1,0.2,0.3,0.4,0.5,0.4l4.1,0.6
					l-3,3.1c-0.2,0.2-0.2,0.4-0.2,0.6l0.7,4.3l-3.7-2c-0.2-0.1-0.4-0.1-0.6,0l-3.7,2l0.7-4.3c0-0.2,0-0.5-0.2-0.6l-3-3.1L37.5,4.8z"
					/>
				<path id="Shape-Copy-4_3_" class="st3" d="M72.5,4.8c0.2,0,0.4-0.2,0.5-0.4l1.9-3.9l1.9,3.9c0.1,0.2,0.3,0.4,0.5,0.4l4.1,0.6
					l-3,3.1c-0.2,0.2-0.2,0.4-0.2,0.6l0.7,4.3l-3.7-2c-0.2-0.1-0.4-0.1-0.6,0l-3.7,2l0.7-4.3c0-0.2,0-0.5-0.2-0.6l-3-3.1L72.5,4.8z"
					/>
			</g>
			<path id="Isabela" class="st4" d="M95.4,18.5h1.8v10h-1.8V18.5z M100.3,26.2c0,0.5,0.2,0.8,0.5,1c0.3,0.2,0.7,0.3,1.1,0.3
				c0.1,0,0.3,0,0.5,0c0.2,0,0.4-0.1,0.5-0.1c0.2-0.1,0.3-0.2,0.4-0.3c0.1-0.1,0.2-0.3,0.1-0.5c0-0.2-0.1-0.4-0.2-0.5
				c-0.1-0.1-0.3-0.2-0.5-0.3c-0.2-0.1-0.5-0.1-0.7-0.2c-0.3-0.1-0.6-0.1-0.9-0.2c-0.3-0.1-0.6-0.1-0.9-0.2s-0.5-0.2-0.7-0.4
				c-0.2-0.2-0.4-0.4-0.5-0.6c-0.1-0.2-0.2-0.6-0.2-0.9c0-0.4,0.1-0.7,0.3-1c0.2-0.3,0.4-0.5,0.7-0.6c0.3-0.2,0.6-0.3,1-0.3
				c0.4-0.1,0.7-0.1,1-0.1c0.4,0,0.7,0,1.1,0.1c0.3,0.1,0.6,0.2,0.9,0.4s0.5,0.4,0.7,0.7c0.2,0.3,0.3,0.6,0.3,1h-1.7
				c-0.1-0.4-0.2-0.6-0.5-0.8c-0.3-0.1-0.6-0.2-0.9-0.2c-0.1,0-0.2,0-0.4,0c-0.2,0-0.3,0.1-0.4,0.1c-0.1,0.1-0.2,0.1-0.3,0.2
				c-0.1,0.1-0.1,0.2-0.1,0.4c0,0.2,0.1,0.4,0.2,0.5c0.1,0.1,0.3,0.2,0.5,0.3c0.2,0.1,0.5,0.1,0.7,0.2c0.3,0.1,0.6,0.1,0.9,0.2
				c0.3,0.1,0.6,0.1,0.9,0.2c0.3,0.1,0.5,0.2,0.7,0.4c0.2,0.2,0.4,0.4,0.5,0.6c0.1,0.2,0.2,0.5,0.2,0.9c0,0.4-0.1,0.8-0.3,1.1
				c-0.2,0.3-0.5,0.5-0.8,0.7c-0.3,0.2-0.7,0.3-1,0.4c-0.4,0.1-0.8,0.1-1.1,0.1c-0.5,0-0.9-0.1-1.3-0.2s-0.7-0.3-1-0.5
				c-0.3-0.2-0.5-0.5-0.7-0.8c-0.2-0.3-0.2-0.7-0.3-1.1H100.3z M112.4,26.9c0,0.2,0,0.3,0.1,0.4c0.1,0.1,0.2,0.1,0.3,0.1h0.2
				c0.1,0,0.1,0,0.2,0v1.1c-0.1,0-0.1,0-0.2,0.1c-0.1,0-0.2,0-0.3,0.1c-0.1,0-0.2,0-0.3,0c-0.1,0-0.2,0-0.2,0
				c-0.3,0-0.6-0.1-0.8-0.2s-0.4-0.4-0.4-0.7c-0.3,0.3-0.7,0.5-1.2,0.7c-0.5,0.1-0.9,0.2-1.3,0.2c-0.3,0-0.6,0-0.9-0.1
				c-0.3-0.1-0.6-0.2-0.8-0.4c-0.2-0.2-0.4-0.4-0.5-0.7c-0.1-0.3-0.2-0.6-0.2-0.9c0-0.4,0.1-0.8,0.2-1.1c0.2-0.3,0.4-0.5,0.6-0.7
				c0.3-0.2,0.6-0.3,0.9-0.3c0.3-0.1,0.7-0.1,1-0.2c0.3-0.1,0.6-0.1,0.8-0.1c0.3,0,0.5-0.1,0.7-0.1s0.4-0.1,0.5-0.3
				c0.1-0.1,0.2-0.3,0.2-0.5c0-0.2,0-0.4-0.1-0.5s-0.2-0.2-0.4-0.3c-0.1-0.1-0.3-0.1-0.5-0.1c-0.2,0-0.3,0-0.5,0
				c-0.4,0-0.8,0.1-1.1,0.3c-0.3,0.2-0.5,0.5-0.5,0.9h-1.6c0-0.5,0.1-0.9,0.3-1.2c0.2-0.3,0.4-0.6,0.7-0.7c0.3-0.2,0.6-0.3,1-0.4
				s0.8-0.1,1.2-0.1c0.4,0,0.7,0,1,0.1c0.3,0.1,0.7,0.2,0.9,0.4c0.3,0.2,0.5,0.4,0.7,0.7c0.2,0.3,0.3,0.6,0.3,1V26.9z M110.8,24.9
				c-0.2,0.2-0.5,0.3-0.9,0.3c-0.4,0-0.7,0.1-1.1,0.1c-0.2,0-0.3,0.1-0.5,0.1s-0.3,0.1-0.4,0.2c-0.1,0.1-0.2,0.2-0.3,0.4
				c-0.1,0.1-0.1,0.3-0.1,0.5c0,0.2,0.1,0.3,0.2,0.4c0.1,0.1,0.2,0.2,0.4,0.3c0.1,0.1,0.3,0.1,0.5,0.1c0.2,0,0.3,0,0.5,0
				c0.2,0,0.4,0,0.6-0.1c0.2,0,0.4-0.1,0.6-0.2c0.2-0.1,0.3-0.3,0.5-0.4c0.1-0.2,0.2-0.4,0.2-0.6V24.9z M114.2,18.5h1.6v3.7h0
				c0.1-0.2,0.2-0.3,0.4-0.5c0.2-0.1,0.3-0.3,0.5-0.4c0.2-0.1,0.4-0.2,0.6-0.2c0.2-0.1,0.4-0.1,0.6-0.1c0.6,0,1.1,0.1,1.5,0.3
				c0.4,0.2,0.8,0.5,1.1,0.8c0.3,0.4,0.5,0.8,0.6,1.2c0.1,0.5,0.2,1,0.2,1.5c0,0.5-0.1,1-0.2,1.4s-0.3,0.9-0.6,1.2s-0.6,0.6-1,0.8
				c-0.4,0.2-0.9,0.3-1.4,0.3c-0.2,0-0.5,0-0.7,0c-0.2,0-0.5-0.1-0.7-0.2s-0.4-0.2-0.6-0.4s-0.3-0.3-0.5-0.6h0v1h-1.5V18.5z
				 M119.7,24.9c0-0.3,0-0.6-0.1-1c-0.1-0.3-0.2-0.6-0.4-0.8s-0.4-0.4-0.6-0.6c-0.3-0.1-0.5-0.2-0.9-0.2c-0.7,0-1.2,0.2-1.5,0.7
				c-0.3,0.5-0.5,1.1-0.5,1.9c0,0.4,0,0.7,0.1,1s0.2,0.6,0.4,0.8c0.2,0.2,0.4,0.4,0.6,0.5c0.2,0.1,0.5,0.2,0.9,0.2
				c0.4,0,0.7-0.1,0.9-0.2s0.5-0.3,0.6-0.6c0.2-0.2,0.3-0.5,0.3-0.8S119.7,25.2,119.7,24.9z M127.6,24.2c0-0.3-0.1-0.5-0.2-0.7
				c-0.1-0.2-0.2-0.4-0.4-0.6c-0.2-0.2-0.3-0.3-0.6-0.4c-0.2-0.1-0.5-0.2-0.7-0.2c-0.3,0-0.5,0-0.8,0.1c-0.2,0.1-0.4,0.2-0.6,0.4
				c-0.2,0.2-0.3,0.4-0.4,0.6c-0.1,0.2-0.2,0.5-0.2,0.8H127.6z M123.9,25.3c0,0.3,0,0.6,0.1,0.8c0.1,0.3,0.2,0.5,0.4,0.7
				s0.4,0.4,0.6,0.5s0.5,0.2,0.9,0.2c0.5,0,0.8-0.1,1.1-0.3s0.5-0.5,0.6-0.9h1.5c-0.1,0.4-0.2,0.7-0.4,1c-0.2,0.3-0.5,0.6-0.7,0.8
				c-0.3,0.2-0.6,0.4-1,0.5c-0.4,0.1-0.7,0.2-1.1,0.2c-0.6,0-1.1-0.1-1.5-0.3c-0.4-0.2-0.8-0.4-1.1-0.8s-0.5-0.7-0.7-1.2
				c-0.2-0.5-0.2-1-0.2-1.5c0-0.5,0.1-1,0.2-1.5c0.2-0.5,0.4-0.9,0.7-1.2c0.3-0.4,0.7-0.6,1.1-0.8c0.4-0.2,0.9-0.3,1.5-0.3
				c0.6,0,1.1,0.1,1.5,0.4s0.8,0.6,1.1,0.9c0.3,0.4,0.5,0.8,0.7,1.4s0.2,1,0.1,1.6H123.9z M130.5,18.5h1.6v10h-1.6V18.5z
				 M139.9,26.9c0,0.2,0,0.3,0.1,0.4c0.1,0.1,0.2,0.1,0.3,0.1h0.2c0.1,0,0.1,0,0.2,0v1.1c-0.1,0-0.1,0-0.2,0.1c-0.1,0-0.2,0-0.3,0.1
				c-0.1,0-0.2,0-0.3,0c-0.1,0-0.2,0-0.2,0c-0.3,0-0.6-0.1-0.8-0.2c-0.2-0.1-0.4-0.4-0.4-0.7c-0.3,0.3-0.7,0.5-1.2,0.7
				c-0.5,0.1-0.9,0.2-1.3,0.2c-0.3,0-0.6,0-0.9-0.1c-0.3-0.1-0.6-0.2-0.8-0.4c-0.2-0.2-0.4-0.4-0.5-0.7c-0.1-0.3-0.2-0.6-0.2-0.9
				c0-0.4,0.1-0.8,0.2-1.1s0.4-0.5,0.6-0.7c0.3-0.2,0.6-0.3,0.9-0.3c0.3-0.1,0.7-0.1,1-0.2c0.3-0.1,0.6-0.1,0.8-0.1
				c0.3,0,0.5-0.1,0.7-0.1s0.4-0.1,0.5-0.3c0.1-0.1,0.2-0.3,0.2-0.5c0-0.2,0-0.4-0.1-0.5c-0.1-0.1-0.2-0.2-0.4-0.3
				c-0.1-0.1-0.3-0.1-0.5-0.1c-0.2,0-0.3,0-0.5,0c-0.4,0-0.8,0.1-1.1,0.3c-0.3,0.2-0.5,0.5-0.5,0.9h-1.6c0-0.5,0.1-0.9,0.3-1.2
				c0.2-0.3,0.4-0.6,0.7-0.7c0.3-0.2,0.6-0.3,1-0.4c0.4-0.1,0.8-0.1,1.2-0.1c0.4,0,0.7,0,1,0.1c0.3,0.1,0.7,0.2,0.9,0.4
				c0.3,0.2,0.5,0.4,0.7,0.7c0.2,0.3,0.3,0.6,0.3,1V26.9z M138.3,24.9c-0.2,0.2-0.5,0.3-0.9,0.3c-0.4,0-0.7,0.1-1.1,0.1
				c-0.2,0-0.3,0.1-0.5,0.1c-0.2,0.1-0.3,0.1-0.4,0.2c-0.1,0.1-0.2,0.2-0.3,0.4c-0.1,0.1-0.1,0.3-0.1,0.5c0,0.2,0.1,0.3,0.2,0.4
				c0.1,0.1,0.2,0.2,0.4,0.3c0.1,0.1,0.3,0.1,0.5,0.1c0.2,0,0.3,0,0.5,0c0.2,0,0.4,0,0.6-0.1c0.2,0,0.4-0.1,0.6-0.2
				c0.2-0.1,0.3-0.3,0.5-0.4c0.1-0.2,0.2-0.4,0.2-0.6V24.9z"/>
			<path id="Rectangle-7-Copy-6_3_" class="st5" d="M95.3,41.5h260c0.6,0,1,0.4,1,1v6c0,0.6-0.4,1-1,1h-260c-0.6,0-1-0.4-1-1v-6
				C94.3,41.9,94.8,41.5,95.3,41.5z"/>
			<path id="Rectangle-7-Copy-14_3_" class="st5" d="M95.3,59.5h132c0.6,0,1,0.4,1,1v6c0,0.6-0.4,1-1,1h-132c-0.6,0-1-0.4-1-1v-6
				C94.3,59.9,94.8,59.5,95.3,59.5z"/>
			<g id="user_male_3_" transform="translate(25.000000, 14.000000)">
				<g id="Mask_3_">
					<circle id="path-15_1_" class="st6" cx="23.8" cy="25" r="24.5"/>
				</g>
				<defs>
					<filter id="Adobe_OpacityMaskFilter_3_" filterUnits="userSpaceOnUse" x="2.3" y="10.5" width="43" height="43">
						<feColorMatrix  type="matrix" values="1 0 0 0 0  0 1 0 0 0  0 0 1 0 0  0 0 0 1 0"/>
					</filter>
				</defs>
				<mask maskUnits="userSpaceOnUse" x="2.3" y="10.5" width="43" height="43" id="mask-16_1_">
					<g class="st21">
						<circle id="path-15_2_" class="st8" cx="23.8" cy="25" r="24.5"/>
					</g>
				</mask>
				<g id="Shape_7_" class="st22">
					<g transform="translate(3.000000, 10.000000)">
						<path class="st10" d="M26.2,29.2v-3.6c0.8-0.4,3.1-3.1,3.4-5.3c0.6,0,1.6-0.6,1.9-2.9c0.2-1.2-0.5-1.9-0.8-2.1
							c0,0,0.9-1.8,0.9-4c0-4.4-1.7-8.1-5.4-8.1c0,0-1.3-2.7-5.4-2.7c-7.6,0-10.8,4.9-10.8,10.8c0,2,0.9,4,0.9,4
							c-0.4,0.2-1,0.9-0.8,2.1c0.3,2.3,1.3,2.9,1.9,2.9c0.2,2.1,2.5,4.9,3.4,5.3v3.6C13.7,34.5-0.7,31-0.7,43.5h43
							C42.3,31,28,34.5,26.2,29.2z"/>
					</g>
				</g>
			</g>
		</g>
		<g id="Group-12" transform="translate(131.000000, 66.000000)">
			<g id="Rectangle-2_4_">
				<g>
					<path id="path-17" class="st0" d="M7.1,0.8h299c4.3,0,7.8,3.5,7.8,7.8v283.9c0,4.3-3.5,7.8-7.8,7.8H7.1c-4.3,0-7.8-3.5-7.8-7.8
						V8.6C-0.7,4.2,2.8,0.8,7.1,0.8z"/>
				</g>
				<g>
					<path id="path-17_1_" class="st1" d="M7.1,0.8h299c4.3,0,7.8,3.5,7.8,7.8v283.9c0,4.3-3.5,7.8-7.8,7.8H7.1
						c-4.3,0-7.8-3.5-7.8-7.8V8.6C-0.7,4.2,2.8,0.8,7.1,0.8z"/>
				</g>
			</g>
			<g id="Group-13" transform="translate(49.000000, 32.000000)">
				<g id="Group-4" transform="translate(62.000000, 233.000000)">
					<circle id="Oval-2-Copy-2" class="st23" cx="44.3" cy="5.5" r="5"/>
					<circle id="Oval-2-Copy-3" class="st23" cx="64.3" cy="5.5" r="5"/>
					<circle id="Oval-2-Copy-4" class="st23" cx="84.3" cy="5.5" r="5"/>
					<circle id="Oval-2-Copy-2_1_" class="st23" cx="24.3" cy="5.5" r="5"/>
					<circle id="Oval-2-Copy-2_2_" class="st24" cx="4.3" cy="5.5" r="5"/>
				</g>
				<g id="comida" transform="translate(46.200000, 0.000000)">
					<path id="Oval-4" class="st25" d="M60.4,168.1c-35.5,0-64.3-28.8-64.3-64.3s28.8-64.4,64.3-64.4s64.3,28.8,64.3,64.4
						S96,168.1,60.4,168.1z M60.4,161.6c31.9,0,57.8-25.9,57.8-57.8S92.4,45.9,60.4,45.9S2.6,71.8,2.6,103.7S28.5,161.6,60.4,161.6z
						"/>
					
						<linearGradient id="Oval-4-Copy_1_" gradientUnits="userSpaceOnUse" x1="-121.0779" y1="210.3866" x2="-120.3472" y2="209.1588" gradientTransform="matrix(114.968 0 0 -128.7 13955.6328 27097.1836)">
						<stop  offset="0" style="stop-color:#5677FC"/>
						<stop  offset="1" style="stop-color:#5677FC"/>
					</linearGradient>
					<path id="Oval-4-Copy" class="st26" d="M60.4,167.9v-6.5c31.9,0,57.8-25.9,57.8-57.8S92.4,45.8,60.4,45.8
						c-18,0-34.6,8.3-45.5,22.1l-5.1-4c12.1-15.4,30.6-24.6,50.6-24.6c35.5,0,64.3,28.8,64.3,64.4S96,167.9,60.4,167.9z"/>
					<path id="Ambiente" class="st27" d="M14.6,0.8h3.1l6.4,16.7H21l-1.6-4.4h-6.7l-1.6,4.4h-3L14.6,0.8z M13.5,10.9h5.1l-2.5-7.2
						h-0.1L13.5,10.9z M25.3,5.4h2.5v1.7h0.1c0.2-0.3,0.4-0.6,0.7-0.8c0.2-0.2,0.5-0.5,0.8-0.6s0.6-0.3,1-0.4
						c0.4-0.1,0.8-0.2,1.3-0.2c0.7,0,1.4,0.2,2,0.5s1.1,0.8,1.3,1.5c0.5-0.6,1-1.1,1.6-1.5s1.3-0.5,2.2-0.5c1.3,0,2.3,0.3,3,0.9
						s1.1,1.7,1.1,3.1v8.4h-2.7v-7.1c0-0.5,0-0.9,0-1.3c0-0.4-0.1-0.7-0.3-1c-0.1-0.3-0.4-0.5-0.7-0.7c-0.3-0.2-0.7-0.2-1.2-0.2
						c-0.9,0-1.6,0.3-2,0.8s-0.6,1.4-0.6,2.4v7.1h-2.7V9.7c0-0.8-0.2-1.5-0.5-1.9s-0.9-0.6-1.7-0.6c-0.3,0-0.7,0.1-1,0.2
						c-0.3,0.1-0.6,0.3-0.8,0.6c-0.2,0.3-0.4,0.6-0.6,1C28.1,9.4,28,9.8,28,10.3v7.2h-2.7V5.4z M45.8,0.8h2.7V7h0
						c0.2-0.3,0.4-0.6,0.7-0.8s0.6-0.4,0.9-0.6c0.3-0.2,0.7-0.3,1-0.4s0.7-0.1,1-0.1c1,0,1.8,0.2,2.5,0.5c0.7,0.3,1.3,0.8,1.8,1.4
						s0.8,1.3,1.1,2s0.4,1.6,0.4,2.5c0,0.8-0.1,1.6-0.3,2.4c-0.2,0.8-0.5,1.4-1,2c-0.4,0.6-1,1.1-1.6,1.4c-0.7,0.4-1.4,0.5-2.3,0.5
						c-0.4,0-0.8,0-1.2-0.1c-0.4-0.1-0.8-0.2-1.2-0.3s-0.7-0.4-1-0.6c-0.3-0.2-0.6-0.6-0.8-1h0v1.7h-2.5V0.8z M55.1,11.5
						c0-0.5-0.1-1.1-0.2-1.6c-0.1-0.5-0.4-1-0.6-1.4c-0.3-0.4-0.6-0.7-1.1-1c-0.4-0.2-0.9-0.4-1.5-0.4c-1.1,0-2,0.4-2.5,1.2
						c-0.6,0.8-0.9,1.8-0.9,3.1c0,0.6,0.1,1.2,0.2,1.7c0.1,0.5,0.4,1,0.7,1.3c0.3,0.4,0.7,0.7,1.1,0.9s0.9,0.3,1.4,0.3
						c0.6,0,1.1-0.1,1.5-0.4c0.4-0.2,0.8-0.6,1-1c0.3-0.4,0.5-0.9,0.6-1.4S55.1,12,55.1,11.5z M60.1,0.8h2.7v2.5h-2.7V0.8z
						 M60.1,5.4h2.7v12.1h-2.7V5.4z M73.9,10.4c0-0.4-0.1-0.8-0.3-1.2c-0.1-0.4-0.4-0.7-0.6-1c-0.3-0.3-0.6-0.5-0.9-0.7
						c-0.4-0.2-0.8-0.3-1.2-0.3c-0.5,0-0.9,0.1-1.3,0.2s-0.7,0.4-1,0.7c-0.3,0.3-0.5,0.6-0.7,1c-0.2,0.4-0.3,0.8-0.3,1.3H73.9z
						 M67.7,12.1c0,0.5,0.1,0.9,0.2,1.4c0.1,0.4,0.3,0.8,0.6,1.1c0.3,0.3,0.6,0.6,1,0.8s0.9,0.3,1.5,0.3c0.8,0,1.4-0.2,1.9-0.5
						c0.5-0.3,0.8-0.8,1.1-1.5h2.5c-0.1,0.7-0.4,1.2-0.7,1.8s-0.8,0.9-1.2,1.3c-0.5,0.4-1,0.6-1.6,0.8c-0.6,0.2-1.2,0.3-1.9,0.3
						c-1,0-1.8-0.2-2.5-0.5c-0.7-0.3-1.4-0.7-1.9-1.3c-0.5-0.6-0.9-1.2-1.1-2c-0.3-0.8-0.4-1.6-0.4-2.6c0-0.9,0.1-1.7,0.4-2.4
						c0.3-0.8,0.7-1.5,1.2-2s1.1-1,1.8-1.4c0.7-0.3,1.5-0.5,2.4-0.5c1,0,1.8,0.2,2.6,0.6c0.8,0.4,1.4,0.9,1.9,1.6
						c0.5,0.7,0.9,1.4,1.1,2.3c0.2,0.9,0.3,1.7,0.2,2.6H67.7z M78.6,5.4h2.5v1.8l0,0c0.4-0.7,0.9-1.2,1.6-1.6
						c0.7-0.4,1.4-0.6,2.2-0.6c1.3,0,2.4,0.3,3.1,1s1.1,1.7,1.1,3.1v8.3h-2.7V9.9c0-1-0.2-1.6-0.6-2.1c-0.4-0.4-1-0.6-1.8-0.6
						c-0.5,0-0.9,0.1-1.2,0.2s-0.7,0.4-0.9,0.7c-0.2,0.3-0.4,0.6-0.6,1c-0.1,0.4-0.2,0.8-0.2,1.2v7.1h-2.7V5.4z M90.9,5.4h2V1.8h2.7
						v3.6h2.4v2h-2.4v6.5c0,0.3,0,0.5,0,0.7s0.1,0.4,0.2,0.5s0.2,0.2,0.4,0.3c0.2,0.1,0.4,0.1,0.7,0.1c0.2,0,0.4,0,0.6,0
						s0.4,0,0.6-0.1v2.1c-0.3,0-0.6,0.1-0.9,0.1c-0.3,0-0.6,0-0.9,0c-0.7,0-1.3-0.1-1.7-0.2s-0.8-0.3-1-0.6c-0.2-0.3-0.4-0.6-0.5-1
						c-0.1-0.4-0.1-0.8-0.2-1.3V7.4h-2V5.4z M108.2,10.4c0-0.4-0.1-0.8-0.3-1.2c-0.1-0.4-0.4-0.7-0.6-1c-0.3-0.3-0.6-0.5-0.9-0.7
						s-0.8-0.3-1.2-0.3c-0.5,0-0.9,0.1-1.3,0.2s-0.7,0.4-1,0.7c-0.3,0.3-0.5,0.6-0.7,1c-0.2,0.4-0.3,0.8-0.3,1.3H108.2z M101.9,12.1
						c0,0.5,0.1,0.9,0.2,1.4c0.1,0.4,0.3,0.8,0.6,1.1c0.3,0.3,0.6,0.6,1,0.8s0.9,0.3,1.5,0.3c0.8,0,1.4-0.2,1.9-0.5
						c0.5-0.3,0.8-0.8,1.1-1.5h2.5c-0.1,0.7-0.4,1.2-0.7,1.8s-0.8,0.9-1.2,1.3c-0.5,0.4-1,0.6-1.6,0.8c-0.6,0.2-1.2,0.3-1.9,0.3
						c-1,0-1.8-0.2-2.5-0.5c-0.7-0.3-1.4-0.7-1.9-1.3s-0.9-1.2-1.1-2c-0.3-0.8-0.4-1.6-0.4-2.6c0-0.9,0.1-1.7,0.4-2.4
						c0.3-0.8,0.7-1.5,1.2-2s1.1-1,1.8-1.4c0.7-0.3,1.5-0.5,2.4-0.5c1,0,1.8,0.2,2.6,0.6c0.8,0.4,1.4,0.9,1.9,1.6s0.9,1.4,1.1,2.3
						c0.2,0.9,0.3,1.7,0.2,2.6H101.9z"/>
					<g class="st28">
						<path class="st29" d="M50.3,91.6v-3.5h19.3V91c-1.9,2-3.8,4.7-5.6,8c-1.9,3.3-3.3,6.8-4.3,10.3c-0.7,2.5-1.2,5.2-1.4,8.2h-3.8
							c0-2.3,0.5-5.2,1.4-8.5c0.9-3.3,2.1-6.5,3.8-9.6c1.6-3.1,3.4-5.7,5.3-7.8H50.3z"/>
					</g>
				</g>
				<g id="Group-2" transform="translate(0.700000, 183.800000)">
					<path id="Shape_8_" class="st2" d="M10.4,11.5c0.6-0.1,1.1-0.5,1.3-1l4.9-10.1l4.9,10.1c0.3,0.5,0.8,0.9,1.3,1L34,13.1l-8,7.8
						c-0.4,0.4-0.6,1-0.5,1.6l1.9,11.1l-9.9-5.2c-0.5-0.3-1.1-0.3-1.6,0L6,33.6l1.9-11.1C7.9,22,7.7,21.4,7.3,21l-8-7.8L10.4,11.5z"
						/>
					<path id="Shape-Copy_4_" class="st2" d="M55.3,11.5c0.6-0.1,1.1-0.5,1.3-1l4.9-10.1l4.9,10.1c0.3,0.5,0.8,0.9,1.3,1L79,13.1
						L71,21c-0.4,0.4-0.6,1-0.5,1.6l1.9,11.1l-9.9-5.2c-0.5-0.3-1.1-0.3-1.6,0l-9.9,5.2l1.9-11.1c0.1-0.6-0.1-1.2-0.5-1.6l-8-7.8
						L55.3,11.5z"/>
					<path id="Shape-Copy-3_4_" class="st2" d="M145.2,11.5c0.6-0.1,1.1-0.5,1.3-1l4.9-10.1l4.9,10.1c0.3,0.5,0.8,0.9,1.3,1
						l11.1,1.6l-8,7.8c-0.4,0.4-0.6,1-0.5,1.6l1.9,11.1l-9.9-5.2c-0.5-0.3-1.1-0.3-1.6,0l-9.9,5.2l1.9-11.1c0.1-0.6-0.1-1.2-0.5-1.6
						l-8-7.8L145.2,11.5z"/>
					<path id="Shape-Copy-2_4_" class="st2" d="M100.2,11.5c0.6-0.1,1.1-0.5,1.3-1l4.9-10.1l4.9,10.1c0.3,0.5,0.8,0.9,1.3,1
						l11.1,1.6l-8,7.8c-0.4,0.4-0.6,1-0.5,1.6l1.9,11.1l-9.9-5.2c-0.5-0.3-1.1-0.3-1.6,0l-9.9,5.2l1.9-11.1c0.1-0.6-0.1-1.2-0.5-1.6
						l-8-7.8L100.2,11.5z"/>
					<path id="Shape-Copy-4_4_" class="st3" d="M190.1,11.5c0.6-0.1,1.1-0.5,1.3-1l4.9-10.1l4.9,10.1c0.3,0.5,0.8,0.9,1.3,1
						l11.1,1.6l-8,7.8c-0.4,0.4-0.6,1-0.5,1.6l1.9,11.1l-9.9-5.2c-0.5-0.3-1.1-0.3-1.6,0l-9.9,5.2l1.9-11.1c0.1-0.6-0.1-1.2-0.5-1.6
						l-8-7.8L190.1,11.5z"/>
				</g>
			</g>
		</g>
	</g>
</g>
</svg>
